{
  "groupHeader": {
	"key": "",
    "showCount": true,
    "elementsLayout": 2,
    "elements": [
            {
              "key": "bank_entityid",
              "dataKey": "bank_entityid"
            },
            {
              "key": "physical_accountname",
              "dataKey": "physical_accountname"
            }
    ]
  },
  "columns": [
          {
            "widthpct": 20,
            "key": "__typename",
            "dataKey": "__typename",
            "type": "text"
          },
          {
            "widthpct": 17,
            "key": "account_number",
            "dataKey": "account_number",
            "type": "text"
          },
          {
            "widthpct": 17,
            "key": "account_guid",
            "dataKey": "account_guid",
            "type": "text"
          },
          {
            "widthpct": 17,
            "key": "account_name",
            "dataKey": "account_name",
            "type": "text"
          },
          {
            "widthpct": 12,
            "key": "customer_guid",
            "dataKey": "customer_guid",
            "type": "text"
          }
          ,
          {
            "widthpct": 12,
            "key": "bank_entity_id",
            "dataKey": "branchDetail.bank_entity_id",
            "type": "text"
          }
          
        ]
}